Statistical Rethinking
…
Well add a row for step zero and an index for each player, then pivot the table to long format

pos2L <- pos2 %>%
  rbind(0,.) %>%
  mutate(step=0:16) %>%
  pivot_longer(cols=1:100,
               names_to="player",
               values_to="value") %>%
  group_by(player) %>%
  mutate(progress=cumsum(value)) %>%
  ungroup() %>%
  arrange(player)
pos2L

## # A tibble: 1,700 x 4
##     step player   value progress
##    <int> <chr>    <dbl>    <dbl>
##  1     0 V1      0         0    
##  2     1 V1      0.263     0.263
##  3     2 V1     -0.561    -0.298
##  4     3 V1     -0.643    -0.941
##  5     4 V1     -0.966    -1.91 
##  6     5 V1      0.706    -1.20 
##  7     6 V1     -0.0898   -1.29 
##  8     7 V1     -0.719    -2.01 
##  9     8 V1      0.867    -1.14 
## 10     9 V1      0.213    -0.929
## # ... with 1,690 more rows
…
