Statistical Rethinking - Second Edition
…
## # A tibble: 9 x 3
##   toss  n_trials n_success
##   <chr>    <int>     <int>
## 1 w            1         1
## 2 l            2         1
## 3 w            3         2
## 4 w            4         3
## 5 w            5         4
## 6 l            6         4
## 7 w            7         5
## 8 l            8         5
## 9 w            9         6

## # A tibble: 450 x 10
## # Groups:   n_trials [9]
##    n_trials toss  n_success p_water lagged_n_trials lagged_n_success prior_pre
##       <int> <chr>     <int>   <dbl>           <int>            <int>     <dbl>
##  1        1 w             1  0                   NA               NA       0.5
##  2        1 w             1  0.0204              NA               NA       0.5
##  3        1 w             1  0.0408              NA               NA       0.5
##  4        1 w             1  0.0612              NA               NA       0.5
##  5        1 w             1  0.0816              NA               NA       0.5
##  6        1 w             1  0.102               NA               NA       0.5
##  7        1 w             1  0.122               NA               NA       0.5
##  8        1 w             1  0.143               NA               NA       0.5
##  9        1 w             1  0.163               NA               NA       0.5
## 10        1 w             1  0.184               NA               NA       0.5
## # ... with 440 more rows, and 3 more variables: likelihood <dbl>, strip <chr>,
## #   prior <dbl>
…
